…
### Exposing the centralities

Now we have all the necessary data about the nodes in the ecological networks to explore their distribution in the network and, as we do in the manuscript, their correlation with other ecological (network) indicators---such as other measures of node centrality. We use a two small functions to expose the desidered uniqueness values from our nested data frame (in `io.R`).

The ecological uniqueness in the Florida food web:


```r
w_adjs_df %>%
  expose_uniqueness("Florida","Uniqueness_topo","inward")
```

```
## # A tibble: 128 x 2
##                    node_name  MeanDist
##                        <chr>     <dbl>
## 1  2um Spherical Phytoplankt 0.5991928
## 2               Synedococcus 0.5991928
## 3               Oscillatoria 0.5991928
## 4      Small Diatoms (<20um) 0.5991928
## 5        Big Diatoms (>20um) 0.5991928
## 6            Dinoflagellates 0.5991928
## 7        Other Phytoplankton 0.5991928
## 8      Benthic Phytoplankton 0.5991928
## 9                  Thalassia 0.5991928
## 10                  Halodule 0.5991928
## # ... with 118 more rows
```

And the topological degree (the number of interaction) in the same web:


```r
w_adjs_df %>%
  expose_degree("Florida","degree_in_topo")
```

```
## # A tibble: 128 x 2
##                    node_name degree_in_topo
##                        <chr>          <dbl>
## 1  2um Spherical Phytoplankt              1
## 2               Synedococcus              1
## 3               Oscillatoria              1
## 4      Small Diatoms (<20um)              1
## 5        Big Diatoms (>20um)              1
## 6            Dinoflagellates              1
## 7        Other Phytoplankton              1
## 8      Benthic Phytoplankton              1
## 9                  Thalassia              1
## 10                  Halodule              1
## # ... with 118 more rows
```
…
